%YAML 1.1
%TAG !u! tag:unity3d.com,2011:
--- !u!74 &7400000
AnimationClip:
  m_ObjectHideFlags: 0
  m_PrefabParentObject: {fileID: 0}
  m_PrefabInternal: {fileID: 0}
  m_Name: PlayerAni
  serializedVersion: 4
  m_AnimationType: 2
  m_Compressed: 0
  m_UseHighQualityCurve: 1
  m_RotationCurves: []
  m_CompressedRotationCurves: []
  m_PositionCurves: []
  m_ScaleCurves: []
  m_FloatCurves: []
  m_PPtrCurves:
  - curve:
    - time: 0
      value: {fileID: 21300000, guid: 4aa386faabfd744d2895996480820e01, type: 3}
    - time: .0833333358
      value: {fileID: 21300000, guid: 6a9307a780cbc4656a6828fcaf82153b, type: 3}
    - time: .166666672
      value: {fileID: 21300000, guid: c4266cce5062c4b5e9f1f60b3bbd1217, type: 3}
    - time: .25
      value: {fileID: 21300000, guid: 773ee73323e574a2e95e7c4265888923, type: 3}
    - time: .333333343
      value: {fileID: 21300000, guid: f8838adb2abe44615be108737886163f, type: 3}
    - time: .416666657
      value: {fileID: 21300000, guid: 08ab5cf77b33a4ecd943b877067199bc, type: 3}
    - time: .5
      value: {fileID: 21300000, guid: eb21cda78b4034eeeb0577909d439048, type: 3}
    - time: .583333313
      value: {fileID: 21300000, guid: d00b076d42f4047ecb4205abe264441b, type: 3}
    attribute: m_Sprite
    path: 
    classID: 212
    script: {fileID: 0}
  m_SampleRate: 12
  m_WrapMode: 0
  m_Bounds:
    m_Center: {x: 0, y: 0, z: 0}
    m_Extent: {x: 0, y: 0, z: 0}
  m_ClipBindingConstant:
    genericBindings:
    - path: 0
      attribute: 0
      script: {fileID: 0}
      classID: 212
      customType: 23
      isPPtrCurve: 1
    pptrCurveMapping:
    - {fileID: 21300000, guid: 4aa386faabfd744d2895996480820e01, type: 3}
    - {fileID: 21300000, guid: 6a9307a780cbc4656a6828fcaf82153b, type: 3}
    - {fileID: 21300000, guid: c4266cce5062c4b5e9f1f60b3bbd1217, type: 3}
    - {fileID: 21300000, guid: 773ee73323e574a2e95e7c4265888923, type: 3}
    - {fileID: 21300000, guid: f8838adb2abe44615be108737886163f, type: 3}
    - {fileID: 21300000, guid: 08ab5cf77b33a4ecd943b877067199bc, type: 3}
    - {fileID: 21300000, guid: eb21cda78b4034eeeb0577909d439048, type: 3}
    - {fileID: 21300000, guid: d00b076d42f4047ecb4205abe264441b, type: 3}
  m_AnimationClipSettings:
    serializedVersion: 2
    m_StartTime: 0
    m_StopTime: .666666627
    m_OrientationOffsetY: 0
    m_Level: 0
    m_CycleOffset: 0
    m_LoopTime: 1
    m_LoopBlend: 0
    m_LoopBlendOrientation: 0
    m_LoopBlendPositionY: 0
    m_LoopBlendPositionXZ: 0
    m_KeepOriginalOrientation: 0
    m_KeepOriginalPositionY: 1
    m_KeepOriginalPositionXZ: 0
    m_HeightFromFeet: 0
    m_Mirror: 0
  m_EditorCurves: []
  m_EulerEditorCurves: []
  m_Events: []
